Lab 4
…
bioClean <- info %>%
  mutate(Name = factor(Name)) %>%
  separate(Height, c('Height_ft', 'Height_in'), sep ="-") %>%
  mutate(Weight = as.numeric(Weight)) %>%
  mutate(Height_ft = as.numeric(Height_ft)) %>%
  mutate(Height_in = as.numeric(Height_in))

defClean

## # A tibble: 502 x 11
##    Name  Opponent Tackles_Solo Tackles_ASST Tackles_TFL Tackles_Sack Turnover_FF
##    <fct> <fct>           <dbl>        <dbl>       <dbl>        <dbl>       <dbl>
##  1 Whit UNI                 4            4           0            0           0
##  2 Whit Iowa                4            7           0            0           0
##  3 Whit ULM                 3            5           0            0           0
##  4 Whit Baylor              4            2           0            0           0
##  5 Whit TCU                 3            2           1            0           0
##  6 Whit West Vi            1            1           0            0           0
##  7 Whit Texas T            7            1           0            0           0
##  8 Whit Oklahom            3            2           0            0           0
##  9 Whit Oklahoma            6            1           1            0           0
## 10 Whit Texas               5            5           1            1           0
## #  with 492 more rows, and 4 more variables: Turnover_FR <dbl>,
## #   Turnover_INT <dbl>, Pass_QBH <dbl>, Pass_PB <dbl>

offClean

## # A tibble: 195 x 12
##    Name  Opponent Rushing_ATT Rushing_YDS Rushing_TD Receiving_REC Receiving_YDS
##    <fct> <fct>          <dbl>       <dbl>      <dbl>         <dbl>         <dbl>
##  1 Aker UNI                0           0          0             1            21
##  2 Aker Iowa               0           0          0             0             0
##  3 Aker ULM                1           8          0             0             0
##  4 Aker Baylor             0           0          0             0             0
##  5 Aker TCU                0           0          0             1            32
##  6 Aker West Vi           0           0          0             0             0
##  7 Aker Texas T           0           0          0             0             0
##  8 Aker Oklahom           0           0          0             4            39
##  9 Aker Oklahoma           0           0          0             0             0
## 10 Aker Texas              0           0          0             1             7
## #  with 185 more rows, and 5 more variables: Receiving_TD <dbl>,
## #   `Passing_CMP-ATT` <dbl>, Passing_YDS <dbl>, Passing_TD <dbl>,
## #   Passing_INT <dbl>

bioClean

## # A tibble: 105 x 8
##    Name      Position   Height_ft Height_in Weight Class   Hometown   Highschool
##    <fct>     <chr>          <dbl>     <dbl>  <dbl> <chr>   <chr>      <chr>     
##  1 Akers, L Wide Rece         6         0    188 Redshi Cedar Rap Washington
##  2 Allen, C Tight End          6         7    245 Redshi Nixa, Mo.  Nixa      
##  3 Anderson Wide Rece         6         5    204 Redshi Seffner,  Armwood   
##  4 Assalley Placekick         6         0    195 Redshi Napervill Central   
##  5 Azunna,  Defensive         6         0    190 Redshi Grand Pra Lake Ridge
##  6 Bailey,  Defensive         6         3    235 Redshi Clarksdal Clarksdale
##  7 Bailey,  Defensive         6         2    255 Redshi Jacksonvi Raines    
##  8 Bailey,  Defensive         6         2    285 Redshi Jacksonvi Raines    
##  9 Bankston Defensive         6         0    300 Junior  Woodstock Woodstock 
## 10 Bouman,  Quarterba         6         6    215 Freshm Buffalo,  Buffalo   
## #  with 95 more rows

Tidying the Data

defClean <- defClean %>%
  pivot_longer(Tackles_Solo:Pass_PB, names_to = 'stat')
defClean

## # A tibble: 4,518 x 4
##    Name            Opponent stat         value
##    <fct>           <fct>    <chr>        <dbl>
##  1 White, Lawrence UNI      Tackles_Solo     4
##  2 White, Lawrence UNI      Tackles_ASST     4
##  3 White, Lawrence UNI      Tackles_TFL      0
##  4 White, Lawrence UNI      Tackles_Sack     0
##  5 White, Lawrence UNI      Turnover_FF      0
##  6 White, Lawrence UNI      Turnover_FR      0
##  7 White, Lawrence UNI      Turnover_INT     0
##  8 White, Lawrence UNI      Pass_QBH         1
##  9 White, Lawrence UNI      Pass_PB          1
## 10 White, Lawrence Iowa     Tackles_Solo     4
## #  with 4,508 more rows
…
